{
  "IcoMoonType": "selection",
  "icons": [
    {
      "icon": {
        "paths": [
          "M1088 128h-64v-64c0-35.2-28.8-64-64-64h-896c-35.2 0-64 28.8-64 64v768c0 35.2 28.8 64 64 64h64v64c0 35.2 28.8 64 64 64h896c35.2 0 64-28.8 64-64v-768c0-35.2-28.8-64-64-64zM128 192v640h-63.886c-0.040-0.034-0.082-0.076-0.114-0.116v-767.77c0.034-0.040 0.076-0.082 0.114-0.114h895.77c0.040 0.034 0.082 0.076 0.116 0.116v63.884h-768c-35.2 0-64 28.8-64 64v0zM1088 959.884c-0.034 0.040-0.076 0.082-0.116 0.116h-895.77c-0.040-0.034-0.082-0.076-0.114-0.116v-767.77c0.034-0.040 0.076-0.082 0.114-0.114h895.77c0.040 0.034 0.082 0.076 0.116 0.116v767.768z",
          "M960 352c0 53.020-42.98 96-96 96s-96-42.98-96-96 42.98-96 96-96 96 42.98 96 96z",
          "M1024 896h-768v-128l224-384 256 320h64l224-192z"
        ],
        "width": 1152,
        "attrs": [],
        "isMulticolor": false,
        "isMulticolor2": false,
        "tags": [
          "images",
          "pictures",
          "photos",
          "graphics"
        ],
        "defaultCode": 57390,
        "grid": 16,
        "colorPermutations": {}
      },
      "attrs": [],
      "properties": {
        "id": 5,
        "order": 4431,
        "prevSize": 15,
        "code": 59710,
        "ligatures": "images2, pictures2",
        "name": "images"
      },
      "setIdx": 2,
      "setId": 12,
      "iconIdx": 5
    },
    {
      "icon": {
        "paths": [
          "M917.806 357.076c-22.21-30.292-53.174-65.7-87.178-99.704s-69.412-64.964-99.704-87.178c-51.574-37.82-76.592-42.194-90.924-42.194h-368c-44.114 0-80 35.888-80 80v736c0 44.112 35.886 80 80 80h608c44.112 0 80-35.888 80-80v-496c0-14.332-4.372-39.35-42.194-90.924zM785.374 302.626c30.7 30.7 54.8 58.398 72.58 81.374h-153.954v-153.946c22.982 17.78 50.678 41.878 81.374 72.572v0zM896 944c0 8.672-7.328 16-16 16h-608c-8.672 0-16-7.328-16-16v-736c0-8.672 7.328-16 16-16 0 0 367.956-0.002 368 0v224c0 17.672 14.324 32 32 32h224v496z",
          "M602.924 42.196c-51.574-37.822-76.592-42.196-90.924-42.196h-368c-44.112 0-80 35.888-80 80v736c0 38.632 27.528 70.958 64 78.39v-814.39c0-8.672 7.328-16 16-16h486.876c-9.646-7.92-19.028-15.26-27.952-21.804z"
        ],
        "attrs": [],
        "isMulticolor": false,
        "isMulticolor2": false,
        "tags": [
          "files-empty",
          "files",
          "documents",
          "papers",
          "pages"
        ],
        "defaultCode": 57485,
        "grid": 16,
        "colorPermutations": {}
      },
      "attrs": [],
      "properties": {
        "order": 4432,
        "id": 15,
        "prevSize": 15,
        "code": 59807,
        "ligatures": "files-empty, files",
        "name": "files-empty"
      },
      "setIdx": 2,
      "setId": 12,
      "iconIdx": 15
    },
    {
      "icon": {
        "paths": [
          "M0 192h128v640h-128zM192 192h64v640h-64zM320 192h64v640h-64zM512 192h64v640h-64zM768 192h64v640h-64zM960 192h64v640h-64zM640 192h32v640h-32zM448 192h32v640h-32zM864 192h32v640h-32z"
        ],
        "attrs": [],
        "isMulticolor": false,
        "isMulticolor2": false,
        "tags": [
          "barcode"
        ],
        "defaultCode": 57533,
        "grid": 16,
        "colorPermutations": {}
      },
      "attrs": [],
      "properties": {
        "id": 23,
        "order": 4371,
        "prevSize": 15,
        "code": 59894,
        "ligatures": "barcode",
        "name": "barcode"
      },
      "setIdx": 2,
      "setId": 12,
      "iconIdx": 23
    },
    {
      "icon": {
        "paths": [
          "M928 128h-832c-52.8 0-96 43.2-96 96v576c0 52.8 43.2 96 96 96h832c52.8 0 96-43.2 96-96v-576c0-52.8-43.2-96-96-96zM192 768h-64v-128h64v128zM320 768h-64v-128h64v128zM448 768h-64v-128h64v128zM992 512h-960v-192h960v192z"
        ],
        "attrs": [],
        "isMulticolor": false,
        "isMulticolor2": false,
        "tags": [
          "credit-card",
          "money",
          "payment",
          "ecommerce"
        ],
        "defaultCode": 57558,
        "grid": 16,
        "colorPermutations": {}
      },
      "attrs": [],
      "properties": {
        "id": 27,
        "order": 4433,
        "prevSize": 15,
        "code": 59926,
        "ligatures": "credit-card2, money13",
        "name": "credit-card"
      },
      "setIdx": 2,
      "setId": 12,
      "iconIdx": 27
    },
    {
      "icon": {
        "paths": [
          "M512 0c-176.732 0-320 143.268-320 320 0 320 320 704 320 704s320-384 320-704c0-176.732-143.27-320-320-320zM512 512c-106.040 0-192-85.96-192-192s85.96-192 192-192 192 85.96 192 192-85.96 192-192 192z"
        ],
        "attrs": [],
        "isMulticolor": false,
        "isMulticolor2": false,
        "tags": [
          "location",
          "map-marker",
          "pin"
        ],
        "defaultCode": 57585,
        "grid": 16,
        "colorPermutations": {}
      },
      "attrs": [],
      "properties": {
        "id": 33,
        "order": 4352,
        "prevSize": 15,
        "code": 59960,
        "ligatures": "location, map-marker",
        "name": "location"
      },
      "setIdx": 2,
      "setId": 12,
      "iconIdx": 33
    },
    {
      "icon": {
        "paths": [
          "M256 64h512v128h-512v-128z",
          "M960 256h-896c-35.2 0-64 28.8-64 64v320c0 35.2 28.794 64 64 64h192v256h512v-256h192c35.2 0 64-28.8 64-64v-320c0-35.2-28.8-64-64-64zM128 448c-35.346 0-64-28.654-64-64s28.654-64 64-64 64 28.654 64 64-28.652 64-64 64zM704 896h-384v-320h384v320z"
        ],
        "attrs": [],
        "isMulticolor": false,
        "isMulticolor2": false,
        "tags": [
          "printer",
          "print"
        ],
        "defaultCode": 57624,
        "grid": 16,
        "colorPermutations": {}
      },
      "attrs": [],
      "properties": {
        "id": 43,
        "order": 4354,
        "prevSize": 15,
        "code": 60006,
        "ligatures": "printer3, print3",
        "name": "printer"
      },
      "setIdx": 2,
      "setId": 12,
      "iconIdx": 43
    },
    {
      "icon": {
        "paths": [
          "M736 0h-448c-52.8 0-96 43.2-96 96v832c0 52.8 43.2 96 96 96h448c52.8 0 96-43.2 96-96v-832c0-52.8-43.2-96-96-96zM384 48h256v32h-256v-32zM512 960c-35.346 0-64-28.654-64-64s28.654-64 64-64 64 28.654 64 64-28.654 64-64 64zM768 768h-512v-640h512v640z"
        ],
        "attrs": [],
        "isMulticolor": false,
        "isMulticolor2": false,
        "tags": [
          "mobile",
          "cell-phone",
          "handheld"
        ],
        "defaultCode": 57637,
        "grid": 16,
        "colorPermutations": {}
      },
      "attrs": [],
      "properties": {
        "id": 47,
        "order": 4428,
        "prevSize": 15,
        "code": 60021,
        "ligatures": "mobile, cell-phone",
        "name": "mobile"
      },
      "setIdx": 2,
      "setId": 12,
      "iconIdx": 47
    },
    {
      "icon": {
        "paths": [
          "M480 0v0c265.096 0 480 173.914 480 388.448s-214.904 388.448-480 388.448c-25.458 0-50.446-1.62-74.834-4.71-103.106 102.694-222.172 121.108-341.166 123.814v-25.134c64.252-31.354 116-88.466 116-153.734 0-9.106-0.712-18.048-2.030-26.794-108.558-71.214-177.97-179.988-177.97-301.89 0-214.534 214.904-388.448 480-388.448zM996 870.686c0 55.942 36.314 104.898 92 131.772v21.542c-103.126-2.318-197.786-18.102-287.142-106.126-21.14 2.65-42.794 4.040-64.858 4.040-95.47 0-183.408-25.758-253.614-69.040 144.674-0.506 281.26-46.854 384.834-130.672 52.208-42.252 93.394-91.826 122.414-147.348 30.766-58.866 46.366-121.582 46.366-186.406 0-10.448-0.45-20.836-1.258-31.168 72.57 59.934 117.258 141.622 117.258 231.676 0 104.488-60.158 197.722-154.24 258.764-1.142 7.496-1.76 15.16-1.76 22.966z"
        ],
        "width": 1152,
        "attrs": [],
        "isMulticolor": false,
        "isMulticolor2": false,
        "tags": [
          "bubbles",
          "comments",
          "chat",
          "talk"
        ],
        "defaultCode": 57682,
        "grid": 16,
        "colorPermutations": {}
      },
      "attrs": [],
      "properties": {
        "id": 70,
        "order": 4434,
        "prevSize": 15,
        "code": 60099,
        "ligatures": "bubbles2, comments2",
        "name": "bubbles-2"
      },
      "setIdx": 2,
      "setId": 12,
      "iconIdx": 70
    },
    {
      "icon": {
        "paths": [
          "M576 706.612v-52.78c70.498-39.728 128-138.772 128-237.832 0-159.058 0-288-192-288s-192 128.942-192 288c0 99.060 57.502 198.104 128 237.832v52.78c-217.102 17.748-384 124.42-384 253.388h896c0-128.968-166.898-235.64-384-253.388z"
        ],
        "attrs": [],
        "isMulticolor": false,
        "isMulticolor2": false,
        "tags": [
          "user",
          "profile",
          "avatar",
          "person",
          "member"
        ],
        "defaultCode": 57733,
        "grid": 16,
        "colorPermutations": {}
      },
      "attrs": [],
      "properties": {
        "order": 4429,
        "id": 71,
        "prevSize": 15,
        "code": 60148,
        "ligatures": "user, profile2",
        "name": "user"
      },
      "setIdx": 2,
      "setId": 12,
      "iconIdx": 71
    },
    {
      "icon": {
        "paths": [
          "M1024 864l-300.486-300.486c28.384-53.576 44.486-114.66 44.486-179.514 0-212.078-171.922-384-384-384-212.076 0-384 171.922-384 384s171.922 384 384 384c64.854 0 125.938-16.102 179.514-44.486l300.486 300.486 160-160zM128 384c0-141.384 114.616-256 256-256s256 114.616 256 256-114.616 256-256 256-256-114.616-256-256z"
        ],
        "attrs": [],
        "isMulticolor": false,
        "isMulticolor2": false,
        "tags": [
          "search",
          "magnifier",
          "magnifying-glass",
          "inspect",
          "find"
        ],
        "defaultCode": 60205,
        "grid": 16,
        "colorPermutations": {}
      },
      "attrs": [],
      "properties": {
        "order": 4430,
        "id": 81,
        "prevSize": 15,
        "code": 60205,
        "ligatures": "search, magnifier",
        "name": "search"
      },
      "setIdx": 2,
      "setId": 12,
      "iconIdx": 81
    },
    {
      "icon": {
        "paths": [
          "M832 320c0-50.638-39.214-92.090-88.93-95.712 32.592-37.716 31.012-94.754-4.796-130.562-35.806-35.808-92.846-37.388-130.558-4.798-3.626-49.714-45.076-88.928-95.716-88.928s-92.088 39.214-95.712 88.928c-37.714-32.59-94.754-31.008-130.562 4.798-35.806 35.808-37.388 92.846-4.798 130.562-49.712 3.624-88.928 45.074-88.928 95.712s39.214 92.088 88.928 95.712c-32.59 37.714-31.008 94.754 4.798 130.56 26.588 26.588 64.878 34.288 98.274 23.154v422.574l128-128 128 128v-422.572c33.396 11.13 71.686 3.436 98.274-23.154 35.808-35.806 37.388-92.844 4.796-130.56 49.716-3.624 88.93-45.076 88.93-95.714zM512 512c-106.040 0-192-85.96-192-192s85.96-192 192-192c106.040 0 192 85.96 192 192s-85.96 192-192 192z"
        ],
        "attrs": [],
        "isMulticolor": false,
        "isMulticolor2": false,
        "tags": [
          "medal",
          "badge",
          "award",
          "prize",
          "certificate"
        ],
        "defaultCode": 57879,
        "grid": 16,
        "colorPermutations": {}
      },
      "attrs": [],
      "properties": {
        "id": 111,
        "order": 4383,
        "prevSize": 15,
        "code": 60317,
        "ligatures": "medal, badge2",
        "name": "medal"
      },
      "setIdx": 2,
      "setId": 12,
      "iconIdx": 111
    },
    {
      "icon": {
        "paths": [
          "M192 1024h640l64-704h-768zM640 128v-128h-256v128h-320v192l64-64h768l64 64v-192h-320zM576 128h-128v-64h128v64z"
        ],
        "attrs": [],
        "isMulticolor": false,
        "isMulticolor2": false,
        "tags": [
          "bin",
          "trashcan",
          "remove",
          "delete",
          "recycle",
          "dispose"
        ],
        "defaultCode": 57935,
        "grid": 16,
        "colorPermutations": {}
      },
      "attrs": [],
      "properties": {
        "id": 113,
        "order": 4420,
        "prevSize": 15,
        "code": 60411,
        "ligatures": "bin2, trashcan2",
        "name": "bin"
      },
      "setIdx": 2,
      "setId": 12,
      "iconIdx": 113
    },
    {
      "icon": {
        "paths": [
          "M879.326 195.908l-351.998-192c-4.774-2.606-10.048-3.908-15.322-3.908s-10.548 1.302-15.326 3.908l-352.004 192c-10.28 5.606-16.676 16.382-16.676 28.092v256c0 140.788 36.312 254.616 111.012 347.99 58.364 72.956 138.144 132.366 258.68 192.63 4.504 2.252 9.408 3.378 14.31 3.378s9.806-1.126 14.31-3.378c120.534-60.268 200.31-119.678 258.674-192.63 74.702-93.374 111.014-207.202 111.014-347.99l0.002-256c0-11.71-6.396-22.486-16.676-28.092zM800 480c0 60.998-7.508 114.184-22.954 162.598-14.868 46.606-36.792 87.632-67.022 125.422-44.742 55.928-106.512 103.48-198.022 152.008 0 0-0.002-0.002-0.002-0.002v-815.124l0.004-0.002 287.998 157.090-0.002 218.010z"
        ],
        "attrs": [],
        "isMulticolor": false,
        "isMulticolor2": false,
        "tags": [
          "shield",
          "security",
          "defense",
          "protection",
          "anti virus"
        ],
        "defaultCode": 57982,
        "grid": 16,
        "colorPermutations": {}
      },
      "attrs": [],
      "properties": {
        "order": 4360,
        "id": 118,
        "prevSize": 15,
        "code": 60462,
        "ligatures": "shield, security",
        "name": "shield"
      },
      "setIdx": 2,
      "setId": 12,
      "iconIdx": 118
    },
    {
      "icon": {
        "paths": [
          "M879.324 195.908l-351.996-192c-4.774-2.606-10.048-3.908-15.322-3.908-5.276 0-10.548 1.302-15.326 3.908l-352.004 192c-10.28 5.606-16.676 16.382-16.676 28.092v256c0 140.79 36.31 254.618 111.012 347.99 58.364 72.956 138.144 132.366 258.68 192.628 4.504 2.252 9.408 3.378 14.31 3.378s9.804-1.126 14.308-3.378c120.536-60.268 200.31-119.678 258.674-192.628 74.704-93.372 111.016-207.2 111.016-347.99l0.002-256c0-11.71-6.396-22.486-16.678-28.092zM416 722.912l-178.912-178.912 50.912-50.912 128 128 320-320 50.912 50.912-370.912 370.912z"
        ],
        "attrs": [],
        "isMulticolor": false,
        "isMulticolor2": false,
        "tags": [
          "shield-check",
          "security",
          "defense",
          "protection",
          "anti virus"
        ],
        "defaultCode": 57982,
        "grid": 16,
        "colorPermutations": {}
      },
      "attrs": [],
      "properties": {
        "order": 4372,
        "id": 119,
        "prevSize": 15,
        "code": 60463,
        "ligatures": "shield-check, security2",
        "name": "shield-check"
      },
      "setIdx": 2,
      "setId": 12,
      "iconIdx": 119
    },
    {
      "icon": {
        "paths": [
          "M384 64h640v128h-640v-128zM384 448h640v128h-640v-128zM384 832h640v128h-640v-128zM0 128c0-70.692 57.308-128 128-128 70.692 0 128 57.308 128 128 0 70.692-57.308 128-128 128-70.692 0-128-57.308-128-128zM0 512c0-70.692 57.308-128 128-128 70.692 0 128 57.308 128 128 0 70.692-57.308 128-128 128-70.692 0-128-57.308-128-128zM0 896c0-70.692 57.308-128 128-128 70.692 0 128 57.308 128 128 0 70.692-57.308 128-128 128-70.692 0-128-57.308-128-128z"
        ],
        "attrs": [],
        "isMulticolor": false,
        "isMulticolor2": false,
        "tags": [
          "list",
          "todo",
          "bullet",
          "menu",
          "options"
        ],
        "defaultCode": 58010,
        "grid": 16,
        "colorPermutations": {}
      },
      "attrs": [],
      "properties": {
        "id": 126,
        "order": 4435,
        "prevSize": 15,
        "code": 60503,
        "ligatures": "list2, todo2",
        "name": "list"
      },
      "setIdx": 2,
      "setId": 12,
      "iconIdx": 126
    },
    {
      "icon": {
        "paths": [
          "M832 448c70.692 0 128 57.308 128 128s-57.308 128-128 128c-70.692 0-128-57.308-128-128 0-70.692 57.308-128 128-128zM512 448c70.692 0 128 57.308 128 128s-57.308 128-128 128c-70.692 0-128-57.308-128-128 0-70.692 57.308-128 128-128zM192 448c70.692 0 128 57.308 128 128s-57.308 128-128 128c-70.692 0-128-57.308-128-128 0-70.692 57.308-128 128-128z"
        ],
        "attrs": [],
        "isMulticolor": false,
        "isMulticolor2": false,
        "tags": [
          "menu",
          "dots",
          "more"
        ],
        "defaultCode": 58026,
        "grid": 16,
        "colorPermutations": {}
      },
      "attrs": [],
      "properties": {
        "id": 132,
        "order": 4358,
        "prevSize": 15,
        "code": 60519,
        "ligatures": "menu, dots3",
        "name": "three-dots-horizontal"
      },
      "setIdx": 2,
      "setId": 12,
      "iconIdx": 132
    },
    {
      "icon": {
        "paths": [
          "M64 192h896v128h-896v-128z",
          "M64 448h896v128h-896v-128z",
          "M64 704h896v128h-896v-128z"
        ],
        "attrs": [],
        "isMulticolor": false,
        "isMulticolor2": false,
        "tags": [
          "menu",
          "list",
          "options",
          "lines",
          "hamburger"
        ],
        "defaultCode": 58031,
        "grid": 16,
        "colorPermutations": {}
      },
      "attrs": [],
      "properties": {
        "order": 4337,
        "id": 134,
        "prevSize": 15,
        "code": 60526,
        "ligatures": "menu7, list5",
        "name": "menu"
      },
      "setIdx": 2,
      "setId": 12,
      "iconIdx": 134
    },
    {
      "icon": {
        "paths": [
          "M808.654 1009.706c-6.578 0-13.156-2.024-18.754-6.072l-277.9-201.006-277.9 201.004c-11.228 8.124-26.408 8.092-37.606-0.070-11.198-8.166-15.868-22.61-11.568-35.784l106.056-325.026-277.736-200.92c-11.242-8.132-15.96-22.584-11.688-35.784 4.274-13.2 16.568-22.142 30.444-22.142l343.458-0.012 106.12-325.128c4.296-13.164 16.574-22.072 30.42-22.072s26.124 8.908 30.42 22.072l106.122 325.128 343.458 0.012c13.876 0 26.168 8.942 30.442 22.142 4.276 13.2-0.446 27.65-11.688 35.784l-277.734 200.922 106.056 325.026c4.298 13.174-0.372 27.618-11.568 35.784-5.618 4.092-12.234 6.142-18.854 6.142zM130.826 447.902l216.57 156.674c11.264 8.146 15.978 22.636 11.666 35.852l-82.788 253.716 216.974-156.936c11.192-8.096 26.316-8.098 37.508 0l216.972 156.934-82.788-253.714c-4.312-13.214 0.402-27.706 11.666-35.852l216.568-156.674-267.852-0.008c-13.846 0-26.122-8.908-30.418-22.070l-82.904-254-82.904 253.998c-4.296 13.164-16.572 22.070-30.42 22.070l-267.85 0.010z"
        ],
        "attrs": [],
        "isMulticolor": false,
        "isMulticolor2": false,
        "tags": [
          "star-empty",
          "rate",
          "star",
          "favorite",
          "bookmark"
        ],
        "defaultCode": 58108,
        "grid": 16,
        "colorPermutations": {}
      },
      "attrs": [],
      "properties": {
        "id": 148,
        "order": 4369,
        "prevSize": 15,
        "code": 60640,
        "ligatures": "star-empty, rate",
        "name": "star-empty"
      },
      "setIdx": 2,
      "setId": 12,
      "iconIdx": 148
    },
    {
      "icon": {
        "paths": [
          "M1022.442 406.048c-4.274-13.2-16.566-22.142-30.442-22.142l-343.458-0.012-106.122-325.128c-4.296-13.164-16.572-22.072-30.42-22.072s-26.124 8.908-30.42 22.072l-106.12 325.128-343.46 0.012c-13.876 0-26.168 8.942-30.444 22.142-4.274 13.2 0.446 27.65 11.688 35.784l277.736 200.922-106.056 325.026c-4.298 13.174 0.37 27.618 11.568 35.784 11.198 8.162 26.378 8.194 37.606 0.070l277.902-201.006 277.9 201.004c5.598 4.048 12.176 6.072 18.754 6.072 6.62 0 13.236-2.048 18.854-6.142 11.198-8.166 15.868-22.61 11.568-35.784l-106.056-325.024 277.734-200.922c11.242-8.132 15.962-22.582 11.688-35.784zM676.606 604.576c-11.264 8.146-15.978 22.636-11.666 35.852l82.788 253.714-216.972-156.934c-5.596-4.048-12.176-6.072-18.754-6.072v-559.312l82.904 253.998c4.296 13.164 16.572 22.070 30.418 22.070l267.852 0.008-216.57 156.676z"
        ],
        "attrs": [],
        "isMulticolor": false,
        "isMulticolor2": false,
        "tags": [
          "star-empty",
          "rate",
          "star"
        ],
        "defaultCode": 58109,
        "grid": 16,
        "colorPermutations": {}
      },
      "attrs": [],
      "properties": {
        "id": 149,
        "order": 4368,
        "prevSize": 15,
        "code": 60641,
        "ligatures": "star-empty2, rate2",
        "name": "star-half"
      },
      "setIdx": 2,
      "setId": 12,
      "iconIdx": 149
    },
    {
      "icon": {
        "paths": [
          "M1022.442 406.048c-4.274-13.2-16.566-22.142-30.442-22.142l-343.458-0.012-106.122-325.128c-4.296-13.164-16.572-22.072-30.42-22.072s-26.124 8.908-30.42 22.072l-106.12 325.128-343.46 0.012c-13.876 0-26.168 8.942-30.444 22.142-4.274 13.2 0.446 27.65 11.688 35.784l277.736 200.922-106.056 325.026c-4.298 13.174 0.37 27.618 11.568 35.784 11.198 8.162 26.378 8.194 37.606 0.070l277.902-201.006 277.9 201.004c5.598 4.048 12.176 6.072 18.754 6.072 6.62 0 13.236-2.048 18.854-6.142 11.198-8.166 15.868-22.61 11.568-35.784l-106.056-325.024 277.734-200.922c11.242-8.132 15.962-22.582 11.688-35.784z"
        ],
        "attrs": [],
        "isMulticolor": false,
        "isMulticolor2": false,
        "tags": [
          "star-full",
          "rate",
          "star",
          "favorite",
          "bookmark"
        ],
        "defaultCode": 58110,
        "grid": 16,
        "colorPermutations": {}
      },
      "attrs": [],
      "properties": {
        "id": 150,
        "order": 4377,
        "prevSize": 15,
        "code": 60642,
        "ligatures": "star-full, rate3",
        "name": "star-full"
      },
      "setIdx": 2,
      "setId": 12,
      "iconIdx": 150
    },
    {
      "icon": {
        "paths": [
          "M512 0c-282.77 0-512 229.23-512 512s229.23 512 512 512 512-229.23 512-512-229.23-512-512-512zM576 832h-128v-128h128v128zM576 576h-128v-384h128v384z"
        ],
        "attrs": [],
        "isMulticolor": false,
        "isMulticolor2": false,
        "tags": [
          "notification",
          "warning",
          "notice",
          "note",
          "exclamation"
        ],
        "defaultCode": 58200,
        "grid": 16,
        "colorPermutations": {}
      },
      "attrs": [],
      "properties": {
        "id": 160,
        "order": 4349,
        "prevSize": 15,
        "code": 60751,
        "ligatures": "notification2, warning4",
        "name": "notification-circle"
      },
      "setIdx": 2,
      "setId": 12,
      "iconIdx": 160
    },
    {
      "icon": {
        "paths": [
          "M512 0c-282.77 0-512 229.23-512 512s229.23 512 512 512 512-229.23 512-512-229.23-512-512-512zM448 240c0-26.4 21.6-48 48-48h32c26.4 0 48 21.6 48 48v32c0 26.4-21.6 48-48 48h-32c-26.4 0-48-21.6-48-48v-32zM640 832h-256v-64h64v-256h-64v-64h192v320h64v64z"
        ],
        "attrs": [],
        "isMulticolor": false,
        "isMulticolor2": false,
        "tags": [
          "info",
          "information"
        ],
        "defaultCode": 60769,
        "grid": 16,
        "colorPermutations": {}
      },
      "attrs": [],
      "properties": {
        "id": 170,
        "order": 4347,
        "prevSize": 15,
        "code": 60769,
        "ligatures": "info2, information2",
        "name": "info"
      },
      "setIdx": 2,
      "setId": 12,
      "iconIdx": 170
    },
    {
      "icon": {
        "paths": [
          "M893.254 221.254l-90.508-90.508-290.746 290.744-290.746-290.744-90.508 90.506 290.746 290.748-290.746 290.746 90.508 90.508 290.746-290.746 290.746 290.746 90.508-90.51-290.744-290.744z"
        ],
        "attrs": [],
        "isMulticolor": false,
        "isMulticolor2": false,
        "tags": [
          "cross",
          "cancel",
          "close",
          "quit",
          "remove"
        ],
        "defaultCode": 60778,
        "grid": 16,
        "colorPermutations": {}
      },
      "attrs": [],
      "properties": {
        "id": 175,
        "order": 4341,
        "prevSize": 15,
        "code": 60778,
        "ligatures": "cross2, cancel3",
        "name": "cross"
      },
      "setIdx": 2,
      "setId": 12,
      "iconIdx": 175
    },
    {
      "icon": {
        "paths": [
          "M0 672l128 128 384-384 384 384 128-128-511.998-512-512.002 512z"
        ],
        "attrs": [],
        "isMulticolor": false,
        "isMulticolor2": false,
        "tags": [
          "arrow-up",
          "up",
          "top"
        ],
        "defaultCode": 60853,
        "grid": 16,
        "colorPermutations": {}
      },
      "attrs": [],
      "properties": {
        "id": 202,
        "order": 4329,
        "prevSize": 15,
        "code": 60853,
        "ligatures": "arrow-up2, up2",
        "name": "chevron-up"
      },
      "setIdx": 2,
      "setId": 12,
      "iconIdx": 201
    },
    {
      "icon": {
        "paths": [
          "M352 0l-128 128 384 384-384 384 128 128 512-511.998-512-512.002z"
        ],
        "attrs": [],
        "isMulticolor": false,
        "isMulticolor2": false,
        "tags": [
          "arrow-right",
          "right",
          "next"
        ],
        "defaultCode": 60857,
        "grid": 16,
        "colorPermutations": {}
      },
      "attrs": [],
      "properties": {
        "id": 203,
        "order": 4330,
        "prevSize": 15,
        "code": 60857,
        "ligatures": "arrow-right2, right4",
        "name": "chevron-right"
      },
      "setIdx": 2,
      "setId": 12,
      "iconIdx": 202
    },
    {
      "icon": {
        "paths": [
          "M1024 352l-128-128-384 384-384-384-128 128 511.998 512 512.002-512z"
        ],
        "attrs": [],
        "isMulticolor": false,
        "isMulticolor2": false,
        "tags": [
          "arrow-down",
          "down",
          "buttom"
        ],
        "defaultCode": 60861,
        "grid": 16,
        "colorPermutations": {}
      },
      "attrs": [],
      "properties": {
        "id": 204,
        "order": 4331,
        "prevSize": 15,
        "code": 60861,
        "ligatures": "arrow-down2, down2",
        "name": "chevron-down"
      },
      "setIdx": 2,
      "setId": 12,
      "iconIdx": 203
    },
    {
      "icon": {
        "paths": [
          "M672 1024l128-128-384-384 384-384-128-128-512 511.998 512 512.002z"
        ],
        "attrs": [],
        "isMulticolor": false,
        "isMulticolor2": false,
        "tags": [
          "arrow-left",
          "left",
          "previous"
        ],
        "defaultCode": 60865,
        "grid": 16,
        "colorPermutations": {}
      },
      "attrs": [],
      "properties": {
        "id": 205,
        "order": 4332,
        "prevSize": 15,
        "code": 60865,
        "ligatures": "arrow-left2, left5",
        "name": "chevron-left"
      },
      "setIdx": 2,
      "setId": 12,
      "iconIdx": 204
    },
    {
      "icon": {
        "paths": [
          "M800 640l-288-288-288 288h576z"
        ],
        "attrs": [],
        "isMulticolor": false,
        "isMulticolor2": false,
        "tags": [
          "arrow-up",
          "up",
          "upload",
          "top"
        ],
        "defaultCode": 58292,
        "grid": 16,
        "colorPermutations": {}
      },
      "attrs": [],
      "properties": {
        "id": 206,
        "order": 4333,
        "prevSize": 15,
        "code": 60868,
        "ligatures": "arrow-up5, up5",
        "name": "triangle-up"
      },
      "setIdx": 2,
      "setId": 12,
      "iconIdx": 205
    },
    {
      "icon": {
        "paths": [
          "M384 800l288-288-288-288v576z"
        ],
        "attrs": [],
        "isMulticolor": false,
        "isMulticolor2": false,
        "tags": [
          "arrow-right",
          "right",
          "next"
        ],
        "defaultCode": 58292,
        "grid": 16,
        "colorPermutations": {}
      },
      "attrs": [],
      "properties": {
        "id": 207,
        "order": 4334,
        "prevSize": 15,
        "code": 60869,
        "ligatures": "arrow-right5, right7",
        "name": "triangle-right"
      },
      "setIdx": 2,
      "setId": 12,
      "iconIdx": 206
    },
    {
      "icon": {
        "paths": [
          "M224 384l288 288 288-288h-576z"
        ],
        "attrs": [],
        "isMulticolor": false,
        "isMulticolor2": false,
        "tags": [
          "arrow-down",
          "down",
          "download",
          "bottom"
        ],
        "defaultCode": 58292,
        "grid": 16,
        "colorPermutations": {}
      },
      "attrs": [],
      "properties": {
        "id": 208,
        "order": 4335,
        "prevSize": 15,
        "code": 60870,
        "ligatures": "arrow-down5, down5",
        "name": "triangle-down"
      },
      "setIdx": 2,
      "setId": 12,
      "iconIdx": 207
    },
    {
      "icon": {
        "paths": [
          "M640 224l-288 288 288 288v-576z"
        ],
        "attrs": [],
        "isMulticolor": false,
        "isMulticolor2": false,
        "tags": [
          "arrow-left",
          "left",
          "previous"
        ],
        "defaultCode": 58292,
        "grid": 16,
        "colorPermutations": {}
      },
      "attrs": [],
      "properties": {
        "id": 209,
        "order": 4336,
        "prevSize": 15,
        "code": 60871,
        "ligatures": "arrow-left5, left8",
        "name": "triangle-left"
      },
      "setIdx": 2,
      "setId": 12,
      "iconIdx": 208
    },
    {
      "icon": {
        "paths": [
          "M512 0c-282.77 0-512 229.23-512 512s229.23 512 512 512 512-229.23 512-512-229.23-512-512-512zM416 770l-180-214 66-66 114 112 330-288 46 46-376 410z"
        ],
        "attrs": [],
        "isMulticolor": false,
        "isMulticolor2": false,
        "tags": [
          "checkmark-circle"
        ],
        "defaultCode": 61041,
        "grid": 16,
        "colorPermutations": {}
      },
      "attrs": [],
      "properties": {
        "id": 216,
        "order": 4348,
        "prevSize": 15,
        "code": 61043,
        "ligatures": "checkmark-circle",
        "name": "checkmark-circle, radio-checked-2"
      },
      "setIdx": 2,
      "setId": 12,
      "iconIdx": 215
    },
    {
      "icon": {
        "paths": [
          "M0 128l384 384v384l256-64v-320l384-384z"
        ],
        "attrs": [],
        "isMulticolor": false,
        "isMulticolor2": false,
        "tags": [
          "filter",
          "funnel"
        ],
        "defaultCode": 58437,
        "grid": 16,
        "colorPermutations": {}
      },
      "attrs": [],
      "properties": {
        "id": 217,
        "order": 4365,
        "prevSize": 15,
        "code": 61064,
        "ligatures": "filter3, funnel3",
        "name": "filter"
      },
      "setIdx": 2,
      "setId": 12,
      "iconIdx": 216
    },
    {
      "icon": {
        "paths": [
          "M256 640c0 0 58.824-192 384-192v192l384-256-384-256v192c-256 0-384 159.672-384 320zM704 768h-576v-384h125.876c10.094-11.918 20.912-23.334 32.488-34.18 43.964-41.19 96.562-72.652 156.114-93.82h-442.478v640h832v-268.624l-128 85.334v55.29z"
        ],
        "attrs": [],
        "isMulticolor": false,
        "isMulticolor2": false,
        "tags": [
          "share",
          "out",
          "external",
          "outside"
        ],
        "defaultCode": 58491,
        "grid": 16,
        "colorPermutations": {}
      },
      "attrs": [],
      "properties": {
        "id": 219,
        "order": 4363,
        "prevSize": 15,
        "code": 61125,
        "ligatures": "share2, out2",
        "name": "export"
      },
      "setIdx": 2,
      "setId": 12,
      "iconIdx": 218
    },
    {
      "icon": {
        "paths": [
          "M842.012 589.48c-13.648-13.446-43.914-20.566-89.972-21.172-31.178-0.344-68.702 2.402-108.17 7.928-17.674-10.198-35.892-21.294-50.188-34.658-38.462-35.916-70.568-85.772-90.576-140.594 1.304-5.12 2.414-9.62 3.448-14.212 0 0 21.666-123.060 15.932-164.666-0.792-5.706-1.276-7.362-2.808-11.796l-1.882-4.834c-5.894-13.592-17.448-27.994-35.564-27.208l-10.916-0.344c-20.202 0-36.664 10.332-40.986 25.774-13.138 48.434 0.418 120.892 24.98 214.738l-6.288 15.286c-17.588 42.876-39.63 86.060-59.078 124.158l-2.528 4.954c-20.46 40.040-39.026 74.028-55.856 102.822l-17.376 9.188c-1.264 0.668-31.044 16.418-38.028 20.644-59.256 35.38-98.524 75.542-105.038 107.416-2.072 10.17-0.53 23.186 10.014 29.212l16.806 8.458c7.292 3.652 14.978 5.502 22.854 5.502 42.206 0 91.202-52.572 158.698-170.366 77.93-25.37 166.652-46.458 244.412-58.090 59.258 33.368 132.142 56.544 178.142 56.544 8.168 0 15.212-0.78 20.932-2.294 8.822-2.336 16.258-7.368 20.792-14.194 8.926-13.432 10.734-31.932 8.312-50.876-0.72-5.622-5.21-12.574-10.068-17.32zM211.646 814.048c7.698-21.042 38.16-62.644 83.206-99.556 2.832-2.296 9.808-8.832 16.194-14.902-47.104 75.124-78.648 105.066-99.4 114.458zM478.434 199.686c13.566 0 21.284 34.194 21.924 66.254s-6.858 54.56-16.158 71.208c-7.702-24.648-11.426-63.5-11.426-88.904 0-0-0.566-48.558 5.66-48.558v0zM398.852 637.494c9.45-16.916 19.282-34.756 29.33-53.678 24.492-46.316 39.958-82.556 51.478-112.346 22.91 41.684 51.444 77.12 84.984 105.512 4.186 3.542 8.62 7.102 13.276 10.65-68.21 13.496-127.164 29.91-179.068 49.862v0zM828.902 633.652c-4.152 2.598-16.052 4.1-23.708 4.1-24.708 0-55.272-11.294-98.126-29.666 16.468-1.218 31.562-1.838 45.102-1.838 24.782 0 32.12-0.108 56.35 6.072 24.228 6.18 24.538 18.734 20.382 21.332v0z",
          "M917.806 229.076c-22.21-30.292-53.174-65.7-87.178-99.704s-69.412-64.964-99.704-87.178c-51.574-37.82-76.592-42.194-90.924-42.194h-496c-44.112 0-80 35.888-80 80v864c0 44.112 35.886 80 80 80h736c44.112 0 80-35.888 80-80v-624c0-14.332-4.372-39.35-42.194-90.924v0zM785.374 174.626c30.7 30.7 54.8 58.398 72.58 81.374h-153.954v-153.946c22.982 17.78 50.678 41.878 81.374 72.572v0zM896 944c0 8.672-7.328 16-16 16h-736c-8.672 0-16-7.328-16-16v-864c0-8.672 7.328-16 16-16 0 0 495.956-0.002 496 0v224c0 17.672 14.324 32 32 32h224v624z"
        ],
        "attrs": [],
        "isMulticolor": false,
        "isMulticolor2": false,
        "tags": [
          "file-pdf",
          "file",
          "file-format"
        ],
        "defaultCode": 58594,
        "grid": 16,
        "colorPermutations": {}
      },
      "attrs": [],
      "properties": {
        "id": 227,
        "order": 4366,
        "prevSize": 15,
        "code": 61238,
        "ligatures": "file-pdf, file41",
        "name": "file-pdf"
      },
      "setIdx": 2,
      "setId": 12,
      "iconIdx": 226
    },
    {
      "icon": {
        "paths": [
          "M743.028 384h-135.292l-95.732 141.032-95.742-141.032h-135.29l162.162 242.464-182.972 269.536h251.838v-91.576h-50.156l50.156-74.994 111.396 166.57h140.444l-182.976-269.536 162.164-242.464z",
          "M917.806 229.076c-22.21-30.292-53.174-65.7-87.178-99.704s-69.412-64.964-99.704-87.178c-51.574-37.82-76.592-42.194-90.924-42.194h-496c-44.112 0-80 35.888-80 80v864c0 44.112 35.886 80 80 80h736c44.112 0 80-35.888 80-80v-624c0-14.332-4.372-39.35-42.194-90.924v0zM785.374 174.626c30.7 30.7 54.8 58.398 72.58 81.374h-153.954v-153.946c22.982 17.78 50.678 41.878 81.374 72.572v0zM896 944c0 8.672-7.328 16-16 16h-736c-8.672 0-16-7.328-16-16v-864c0-8.672 7.328-16 16-16 0 0 495.956-0.002 496 0v224c0 17.672 14.324 32 32 32h224v624z"
        ],
        "attrs": [],
        "isMulticolor": false,
        "isMulticolor2": false,
        "tags": [
          "file-excel",
          "file",
          "file-format",
          "xlc"
        ],
        "defaultCode": 58597,
        "grid": 16,
        "colorPermutations": {}
      },
      "attrs": [],
      "properties": {
        "id": 229,
        "order": 4367,
        "prevSize": 15,
        "code": 61241,
        "ligatures": "file-excel, file44",
        "name": "file-excel"
      },
      "setIdx": 2,
      "setId": 12,
      "iconIdx": 228
    },
    {
      "icon": {
        "paths": [
          "M880.86 397.388h-288.282v128.125h256.25v192.188h-256.25v320.313h-128.125v-320.313h-352.344l-96.094-96.094 96.094-96.094h352.344v-128.125h-320.313v-256.25h320.313v-80.078c0-12.813 4.805-24.023 14.414-33.633 9.609-11.211 20.82-14.414 33.633-14.414h32.031c12.813 0 24.023 4.805 33.633 14.414 9.609 8.008 14.414 19.219 14.414 33.633v80.078h288.282l128.125 128.125-128.125 128.125z"
        ],
        "attrs": [],
        "isMulticolor": false,
        "isMulticolor2": false,
        "tags": [
          "direction",
          "address",
          "road"
        ],
        "defaultCode": 57598,
        "grid": 16,
        "colorPermutations": {}
      },
      "attrs": [],
      "properties": {
        "order": 4364,
        "id": 231,
        "prevSize": 15,
        "code": 57598,
        "name": "direction"
      },
      "setIdx": 2,
      "setId": 12,
      "iconIdx": 230
    },
    {
      "icon": {
        "paths": [
          "M1024 64v126.4h-512v-126.4h512zM1024 318.4v126.4h-512v-126.4h512zM1024 576v126.4h-1024v-126.4h1024zM1024 832v128h-1024v-128h1024z",
          "M238.4 444.8h-99.2c-76.8 0-139.2-62.4-139.2-139.2v-102.4c0-76.8 62.4-139.2 139.2-139.2h99.2c76.8 0 139.2 62.4 139.2 139.2v102.4c1.6 76.8-62.4 139.2-139.2 139.2z"
        ],
        "attrs": [],
        "isMulticolor": false,
        "isMulticolor2": false,
        "tags": [
          "details"
        ],
        "defaultCode": 59648,
        "grid": 16,
        "colorPermutations": {}
      },
      "attrs": [],
      "properties": {
        "order": 4362,
        "name": "details",
        "prevSize": 15,
        "id": 238,
        "code": 59648
      },
      "setIdx": 2,
      "setId": 12,
      "iconIdx": 237
    },
    {
      "icon": {
        "paths": [
          "M899.714 860.807c-87.115-192.069-65.666-419.193-65.666-422.178 0-155.974-98.915-287.445-233.996-328.191 1.437-6.042 2.271-12.984 2.291-20.117v-0.013c0-49.837-40.401-90.239-90.239-90.239s-90.239 40.401-90.239 90.239v0c0.032 7.003 0.84 13.801 2.341 20.334l-0.12-0.62c-135.983 40.469-235.592 172.286-235.592 328.746 0.012 14.493 0.869 28.772 2.525 42.807l-0.165-1.714c2.846 68.928 0.208 233.787-66.568 380.946h224.555c0 90.091 73.033 163.124 163.124 163.124s163.124-73.033 163.124-163.124v0h224.625zM584.851 860.807c0 40.253-32.632 72.885-72.885 72.885s-72.885-32.632-72.885-72.885v0h145.77z"
        ],
        "attrs": [
          {}
        ],
        "isMulticolor": false,
        "isMulticolor2": false,
        "tags": [
          "bell",
          "alarm",
          "notification"
        ],
        "defaultCode": 59992,
        "grid": 16
      },
      "attrs": [
        {}
      ],
      "properties": {
        "order": 4346,
        "prevSize": 15,
        "ligatures": "bell2, alarm6",
        "name": "bell",
        "id": 243,
        "code": 59992
      },
      "setIdx": 2,
      "setId": 12,
      "iconIdx": 242
    },
    {
      "icon": {
        "paths": [
          "M975.295 499.209c0 9.593-6.395 19.186-31.977 28.779-31.977 12.791-70.349 6.395-108.721-9.593v-223.838c15.988 15.988 35.175 31.977 51.163 51.163 60.756 67.151 92.733 124.71 89.535 153.489zM121.512 160.254c-31.977-9.593-47.965-22.384-54.361-25.582 9.593-6.395 35.175-25.582 102.326-38.372 67.151-15.988 156.687-25.582 249.42-25.582s179.071 9.593 249.42 22.384c67.151 12.791 92.733 31.977 102.326 38.372-9.593 6.395-35.175 25.582-102.326 38.372-67.151 15.988-156.687 22.384-249.42 22.384-15.988 0-31.977 0-47.965 0v211.048c0 25.582-22.384 47.965-47.965 47.965-19.186 0-31.977-9.593-41.57-22.384v67.151c0 51.163-35.175 92.733-76.745 92.733s-76.745-41.57-76.745-92.733v-335.757zM920.935 313.743c-31.977-35.175-63.954-63.954-86.338-83.14v-83.14c0-3.198 0-9.593 0-12.791 0-44.768-44.768-76.745-137.501-99.128-73.547-19.186-172.675-28.779-278.199-28.779s-204.652 9.593-281.397 28.779c-92.733 22.384-137.501 54.361-137.501 99.128 0 6.395 0 9.593 3.198 12.791v738.666c0 54.361 185.466 131.105 415.7 131.105s415.7-76.745 415.7-131.105v-265.408c-143.896-41.57-287.792-195.059-345.351-259.013 0 0-3.198 0-3.198 0-25.582 0-44.768-19.186-44.768-44.768s19.186-44.768 44.768-44.768c25.582 0 44.768 19.186 44.768 44.768 0 0 0 0 0 0s0 3.198 0 3.198 0 6.395-3.198 9.593c12.791 15.988 31.977 35.175 57.558 60.756s57.558 57.558 92.733 86.338c86.338 70.349 159.884 105.524 227.036 105.524 19.186 0 41.57-3.198 57.558-9.593 0 0 0 0 0 0 44.768-15.988 57.558-44.768 60.756-67.151 6.395-44.768-28.779-108.721-102.326-191.861z"
        ],
        "attrs": [
          {}
        ],
        "isMulticolor": false,
        "isMulticolor2": false,
        "grid": 16,
        "tags": [
          "bucket",
          "color"
        ]
      },
      "attrs": [
        {}
      ],
      "properties": {
        "order": 4343,
        "id": 518,
        "name": "paint-can",
        "prevSize": 15,
        "code": 59686
      },
      "setIdx": 2,
      "setId": 12,
      "iconIdx": 258
    },
    {
      "icon": {
        "paths": [
          "M834.048 438.698c0-155.974-98.915-287.445-233.996-328.191 1.437-6.042 2.271-12.984 2.291-20.117v-0.013c0-49.837-40.401-90.239-90.239-90.239s-90.239 40.401-90.239 90.239v0c0.032 7.003 0.84 13.801 2.341 20.334l-0.12-0.62c-135.983 40.33-235.592 172.148-235.592 328.607 0.012 14.493 0.869 28.772 2.525 42.807l-0.165-1.714c2.846 68.928 0.208 233.787-66.568 380.946h224.555c0 90.091 73.033 163.124 163.124 163.124s163.124-73.033 163.124-163.124v0h224.625c-87.115-191.931-65.666-419.054-65.666-422.039zM511.272 194.36c123.419 0 223.861 108.009 225.597 241.215-1.447 21.267-2.271 46.096-2.271 71.117 0 91.183 10.95 179.808 31.607 264.632l-1.57-7.628h-504.85c18.4-74.14 28.956-159.254 28.956-246.834 0-14.282-0.281-28.499-0.837-42.645l0.064 2.034c0-2.499 0-4.928-0.555-7.427-1.103-9.040-1.733-19.508-1.735-30.123v-0.002c0-134.664 101.206-244.338 225.597-244.338zM511.966 933.623c-40.237-0.040-72.846-32.648-72.885-72.881v-0.004h145.77c0 0.021 0 0.045 0 0.069 0 40.267-32.623 72.915-72.881 72.954h-0.004z"
        ],
        "attrs": [
          {}
        ],
        "isMulticolor": false,
        "isMulticolor2": false,
        "grid": 16,
        "tags": [
          "bell",
          "bell-outline",
          "alert"
        ]
      },
      "attrs": [
        {}
      ],
      "properties": {
        "order": 4385,
        "id": 517,
        "name": "bell-o",
        "prevSize": 15,
        "code": 59687
      },
      "setIdx": 2,
      "setId": 12,
      "iconIdx": 259
    },
    {
      "icon": {
        "paths": [
          "M1024 358.156c0-162.458-131.7-294.156-294.156-294.156-86.362 0-164.030 37.218-217.844 96.49-53.814-59.272-131.482-96.49-217.844-96.49-162.458 0-294.156 131.698-294.156 294.156 0 86.362 37.218 164.030 96.49 217.844h-0.49l320 320c32 32 64 64 96 64s64-32 96-64l319.51-320c59.272-53.814 96.49-131.482 96.49-217.844zM841.468 481.232l-323.978 324.258c-1.678 1.678-3.532 3.532-5.49 5.48-1.96-1.95-3.814-3.802-5.49-5.48l-323.978-324.256c-35.166-31.928-54.532-75.638-54.532-123.078 0-91.618 74.538-166.156 166.156-166.156 47.44 0 91.15 19.366 123.076 54.532l94.768 104.38 94.768-104.378c31.928-35.168 75.636-54.534 123.076-54.534 91.618 0 166.156 74.538 166.156 166.156 0 47.44-19.368 91.15-54.532 123.076z"
        ],
        "attrs": [],
        "isMulticolor": false,
        "tags": [
          "heart",
          "like",
          "love",
          "favorite"
        ],
        "defaultCode": 60650,
        "grid": 16
      },
      "attrs": [],
      "properties": {
        "id": 520,
        "order": 4340,
        "prevSize": 15,
        "code": 60651,
        "ligatures": "heart4, like4",
        "name": "heart-o"
      },
      "setIdx": 2,
      "setId": 12,
      "iconIdx": 260
    },
    {
      "icon": {
        "paths": [
          "M1024 358.156c0 86.362-37.218 164.030-96.49 217.844h0.49l-320 320c-32 32-64 64-96 64s-64-32-96-64l-319.51-320c-59.272-53.814-96.49-131.482-96.49-217.844 0-162.458 131.698-294.156 294.156-294.156 86.362 0 164.030 37.218 217.844 96.49 53.814-59.272 131.482-96.49 217.844-96.49 162.456 0 294.156 131.698 294.156 294.156z"
        ],
        "attrs": [],
        "isMulticolor": false,
        "tags": [
          "heart",
          "like",
          "love",
          "favorite"
        ],
        "defaultCode": 60649,
        "grid": 16
      },
      "attrs": [],
      "properties": {
        "id": 519,
        "order": 4339,
        "prevSize": 15,
        "code": 60652,
        "ligatures": "heart3, like3",
        "name": "heart"
      },
      "setIdx": 2,
      "setId": 12,
      "iconIdx": 261
    },
    {
      "icon": {
        "paths": [
          "M917.806 229.076c-22.208-30.292-53.174-65.7-87.178-99.704s-69.412-64.964-99.704-87.178c-51.574-37.82-76.592-42.194-90.924-42.194h-496c-44.112 0-80 35.888-80 80v864c0 44.112 35.884 80 80 80h736c44.112 0 80-35.888 80-80v-624c0-14.332-4.372-39.35-42.194-90.924v0 0zM785.374 174.626c30.7 30.7 54.8 58.398 72.58 81.374h-153.954v-153.946c22.98 17.78 50.678 41.878 81.374 72.572v0 0zM896 944c0 8.672-7.328 16-16 16h-736c-8.672 0-16-7.328-16-16v-864c0-8.672 7.328-16 16-16 0 0 495.956-0.002 496 0v224c0 17.672 14.322 32 32 32h224v624z",
          "M192 448v448h640v-448h-640zM384 832h-128v-128h128v128zM384 640h-128v-128h128v128zM576 832h-128v-128h128v128zM576 640h-128v-128h128v128zM768 832h-128v-128h128v128zM768 640h-128v-128h128v128z"
        ],
        "attrs": [],
        "isMulticolor": false,
        "tags": [
          "file-spreadsheet",
          "file",
          "document",
          "file-excel",
          "file-type",
          "file-format"
        ],
        "defaultCode": 58601,
        "grid": 16
      },
      "attrs": [],
      "properties": {
        "order": 4384,
        "id": 1617,
        "prevSize": 15,
        "code": 59845,
        "ligatures": "file-spreadsheet, file39",
        "name": "file-spreadsheet"
      },
      "setIdx": 9,
      "setId": 0,
      "iconIdx": 286
    },
    {
      "icon": {
        "paths": [
          "M928 128h-832c-52.8 0-96 43.2-96 96v576c0 52.8 43.2 96 96 96h832c52.798 0 96-43.2 96-96v-576c0-52.8-43.2-96-96-96zM896 320l-384 288-384-288v-64l384 192 384-192v64z"
        ],
        "attrs": [],
        "isMulticolor": false,
        "tags": [
          "envelop",
          "mail",
          "email",
          "contact",
          "letter"
        ],
        "defaultCode": 59956,
        "grid": 16
      },
      "attrs": [],
      "properties": {
        "order": 4388,
        "id": 1662,
        "prevSize": 15,
        "code": 59956,
        "ligatures": "envelop5, mail5",
        "name": "envelop5"
      },
      "setIdx": 9,
      "setId": 0,
      "iconIdx": 397
    },
    {
      "icon": {
        "paths": [
          "M0 960c0 35.348 28.654 64 64 64h896c35.348 0 64-28.652 64-64v-576h-1024v576zM704 448h256v128h-256v-128zM704 640h256v128h-256v-128zM704 832h256v128h-256v-128zM384 448h256v128h-256v-128zM384 640h256v128h-256v-128zM384 832h256v128h-256v-128zM64 448h256v128h-256v-128zM64 640h256v128h-256v-128zM64 832h256v128h-256v-128zM960 128h-128v-91.428c0-20.198-14.326-36.572-32-36.572-17.672 0-32 16.374-32 36.572v91.428h-512v-91.428c0-20.198-14.326-36.572-32-36.572s-32 16.374-32 36.572v91.428h-128c-35.346 0-64 28.654-64 64v128h1024v-128c0-35.346-28.654-64-64-64zM224 288c-35.346 0-64-28.654-64-64 0-23.684 12.876-44.348 32-55.416v55.416c0 17.672 14.328 32 32 32s32-14.328 32-32v-55.416c19.124 11.068 32 31.732 32 55.416 0 35.346-28.654 64-64 64zM800 288c-35.344 0-64-28.654-64-64 0-23.684 12.876-44.348 32-55.416v55.416c0 17.672 14.328 32 32 32 17.674 0 32-14.328 32-32v-55.416c19.126 11.068 32 31.732 32 55.416 0 35.346-28.652 64-64 64z"
        ],
        "attrs": [],
        "isMulticolor": false,
        "tags": [
          "calendar",
          "date",
          "schedule",
          "time",
          "day"
        ],
        "defaultCode": 57618,
        "grid": 16
      },
      "attrs": [],
      "properties": {
        "id": 339,
        "order": 4437,
        "prevSize": 15,
        "code": 59999,
        "ligatures": "calendar, date",
        "name": "calendar"
      },
      "setIdx": 9,
      "setId": 0,
      "iconIdx": 440
    },
    {
      "icon": {
        "paths": [
          "M1024 864l-300.486-300.486c28.384-53.576 44.486-114.66 44.486-179.514 0-212.078-171.922-384-384-384-212.076 0-384 171.922-384 384s171.922 384 384 384c64.854 0 125.938-16.102 179.514-44.486l300.486 300.486 160-160zM128 384c0-141.384 114.616-256 256-256s256 114.616 256 256-114.616 256-256 256-256-114.616-256-256z",
          "M576 320h-128v-128h-128v128h-128v128h128v128h128v-128h128z"
        ],
        "attrs": [],
        "isMulticolor": false,
        "tags": [
          "zoom-in",
          "magnifier",
          "magnifier-plus",
          "enlarge"
        ],
        "defaultCode": 60206,
        "grid": 16
      },
      "attrs": [],
      "properties": {
        "order": 4386,
        "id": 1574,
        "prevSize": 15,
        "code": 60206,
        "ligatures": "zoom-in, magnifier2",
        "name": "zoom-in"
      },
      "setIdx": 9,
      "setId": 0,
      "iconIdx": 647
    },
    {
      "icon": {
        "paths": [
          "M1024 864l-300.486-300.486c28.384-53.576 44.486-114.66 44.486-179.514 0-212.078-171.922-384-384-384-212.076 0-384 171.922-384 384s171.922 384 384 384c64.854 0 125.938-16.102 179.514-44.486l300.486 300.486 160-160zM128 384c0-141.384 114.616-256 256-256s256 114.616 256 256-114.616 256-256 256-256-114.616-256-256z",
          "M192 320h384v128h-384v-128z"
        ],
        "attrs": [],
        "isMulticolor": false,
        "tags": [
          "zoom-out",
          "magnifier",
          "magnifier-minus",
          "reduce"
        ],
        "defaultCode": 60207,
        "grid": 16
      },
      "attrs": [],
      "properties": {
        "id": 527,
        "order": 4387,
        "prevSize": 15,
        "code": 60207,
        "ligatures": "zoom-out, magnifier3",
        "name": "zoom-out"
      },
      "setIdx": 9,
      "setId": 0,
      "iconIdx": 648
    },
    {
      "icon": {
        "paths": [
          "M512 256c-282.77 0-512 229.228-512 512h64c0-116.418 51.806-220.726 133.622-291.148l195.322 244.15c-5.75 14.554-8.944 30.398-8.944 46.998 0 70.694 57.308 128 128 128 70.694 0 128-57.306 128-128s-57.306-128-128-128c-16.6 0-32.444 3.194-46.998 8.946l-241.044-192.84c63.056-45.376 140.426-72.108 224.042-72.108 212.076 0 384 171.92 384 383.998h192c0-282.768-229.23-511.996-512-511.996z"
        ],
        "attrs": [],
        "isMulticolor": false,
        "tags": [
          "meter-slow",
          "gauge",
          "dashboard",
          "speedometer",
          "performance"
        ],
        "defaultCode": 57911,
        "grid": 16
      },
      "attrs": [],
      "properties": {
        "id": 657,
        "order": 4380,
        "prevSize": 15,
        "code": 60381,
        "ligatures": "meter-slow, gauge3",
        "name": "meter-slow"
      },
      "setIdx": 9,
      "setId": 0,
      "iconIdx": 822
    },
    {
      "icon": {
        "paths": [
          "M960 512h-64c0-5.232-0.642-10.446-1.91-15.522l-64-256c-7.122-28.49-32.722-48.478-62.090-48.478h-512c-29.368 0-54.966 19.988-62.088 48.478l-64 256c-1.27 5.076-1.912 10.29-1.912 15.522h-64c-35.346 0-64 28.654-64 64v256c0 35.346 28.654 64 64 64h64v64c0 35.346 28.654 64 64 64s64-28.654 64-64v-64h512v64c0 35.346 28.654 64 64 64s64-28.654 64-64v-64h64c35.346 0 64-28.654 64-64v-256c0-35.346-28.654-64-64-64zM192 768c-35.346 0-64-28.654-64-64s28.654-64 64-64 64 28.654 64 64-28.652 64-64 64zM257.97 512l48-192h412.060l48 192h-508.060zM832 768c-35.348 0-64-28.654-64-64s28.652-64 64-64 64 28.654 64 64-28.652 64-64 64z"
        ],
        "attrs": [],
        "isMulticolor": false,
        "tags": [
          "car",
          "travel",
          "automobile",
          "transport",
          "drive",
          "vehicle",
          "transit"
        ],
        "defaultCode": 57949,
        "grid": 16
      },
      "attrs": [],
      "properties": {
        "order": 4379,
        "id": 1722,
        "prevSize": 15,
        "code": 60423,
        "ligatures": "car, travel4",
        "name": "car1"
      },
      "setIdx": 9,
      "setId": 0,
      "iconIdx": 864
    },
    {
      "icon": {
        "paths": [
          "M1024 576l-128-256h-192v-128c0-35.2-28.8-64-64-64h-576c-35.2 0-64 28.8-64 64v512l64 64h81.166c-10.898 18.832-17.166 40.678-17.166 64 0 70.692 57.308 128 128 128s128-57.308 128-128c0-23.322-6.268-45.168-17.166-64h354.334c-10.898 18.832-17.168 40.678-17.168 64 0 70.692 57.308 128 128 128s128-57.308 128-128c0-23.322-6.27-45.168-17.168-64h81.168v-192zM704 576v-192h132.668l96 192h-228.668z"
        ],
        "attrs": [],
        "isMulticolor": false,
        "tags": [
          "truck",
          "transit",
          "transport",
          "delivery",
          "vehicle"
        ],
        "defaultCode": 57952,
        "grid": 16
      },
      "attrs": [],
      "properties": {
        "id": 698,
        "order": 4370,
        "prevSize": 15,
        "code": 60428,
        "ligatures": "truck, transit",
        "name": "truck"
      },
      "setIdx": 9,
      "setId": 0,
      "iconIdx": 869
    },
    {
      "icon": {
        "paths": [
          "M512 544l-224 224h160v192h128v-192h160l-224-224z",
          "M892.216 514.542c2.49-11.29 3.784-22.87 3.784-34.542 0-88.224-71.776-160-160-160-13.956 0-27.796 1.83-41.164 5.378-24.838-77.286-97.404-133.378-182.836-133.378-86.654 0-160.886 58.042-184.312 138.118-22.982-6.66-47.052-10.118-71.688-10.118-141.158 0-256 114.84-256 256 0 61.986 22.444 121.798 63.2 168.42 40.354 46.164 95.852 76.346 156.266 84.988 1.538 0.218 3.064 0.326 4.572 0.326 15.666 0 29.354-11.514 31.638-27.472 2.502-17.496-9.652-33.708-27.146-36.208-45.262-6.474-86.864-29.116-117.144-63.754-30.558-34.956-47.386-79.81-47.386-126.3 0-105.87 86.13-192 192-192 52.024 0 100.73 20.466 137.146 57.63 12.368 12.624 32.63 12.83 45.252 0.458 12.624-12.37 12.83-32.628 0.458-45.252-15.676-15.998-33.070-29.66-51.76-40.848 12.84-57.42 64.304-99.988 124.904-99.988 70.58 0 128 57.42 128 128 0 8.706-0.876 17.398-2.602 25.832-3.542 17.316 7.624 34.222 24.938 37.764 2.164 0.444 4.32 0.656 6.448 0.656 14.884 0 28.218-10.442 31.318-25.592 2.218-10.854 3.494-21.972 3.812-33.126 10.244-3.624 21.096-5.534 32.086-5.534 52.936 0 96 43.066 96 96 0 10.964-1.88 21.784-5.484 32h-26.516c-17.674 0-32 14.326-32 32s14.326 32 32 32h64c52.934 0 96 43.066 96 96s-43.066 96-96 96h-64c-17.674 0-32 14.326-32 32s14.326 32 32 32h64c88.224 0 160-71.776 160-160 0-78.594-56.976-144.086-131.784-157.458z"
        ],
        "attrs": [],
        "isMulticolor": false,
        "tags": [
          "cloud-upload",
          "cloud",
          "load",
          "upload"
        ],
        "defaultCode": 58035,
        "grid": 16
      },
      "attrs": [],
      "properties": {
        "order": 4382,
        "id": 1800,
        "prevSize": 15,
        "code": 60533,
        "ligatures": "cloud-upload, cloud3",
        "name": "cloud-upload"
      },
      "setIdx": 9,
      "setId": 0,
      "iconIdx": 973
    },
    {
      "icon": {
        "paths": [
          "M960 448h-384v-384h-128v384h-384v128h384v384h128v-384h384z"
        ],
        "attrs": [],
        "isMulticolor": false,
        "tags": [
          "plus",
          "add",
          "sum"
        ],
        "defaultCode": 60762,
        "grid": 16
      },
      "attrs": [],
      "properties": {
        "id": 961,
        "order": 4436,
        "prevSize": 15,
        "code": 60765,
        "ligatures": "plus3, add3",
        "name": "plus3"
      },
      "setIdx": 9,
      "setId": 0,
      "iconIdx": 1203
    },
    {
      "icon": {
        "paths": [
          "M874.040 149.96c-96.706-96.702-225.28-149.96-362.040-149.96s-265.334 53.258-362.040 149.96c-96.702 96.706-149.96 225.28-149.96 362.040s53.258 265.334 149.96 362.040c96.706 96.702 225.28 149.96 362.040 149.96s265.334-53.258 362.040-149.96c96.702-96.706 149.96-225.28 149.96-362.040s-53.258-265.334-149.96-362.040zM896 512c0 82.814-26.354 159.588-71.112 222.38l-535.266-535.268c62.792-44.758 139.564-71.112 222.378-71.112 211.738 0 384 172.262 384 384zM128 512c0-82.814 26.354-159.586 71.112-222.378l535.27 535.268c-62.794 44.756-139.568 71.11-222.382 71.11-211.738 0-384-172.262-384-384z"
        ],
        "attrs": [],
        "isMulticolor": false,
        "tags": [
          "blocked",
          "forbidden",
          "denied",
          "banned"
        ],
        "defaultCode": 58212,
        "grid": 16
      },
      "attrs": [],
      "properties": {
        "id": 967,
        "order": 4381,
        "prevSize": 15,
        "code": 60775,
        "ligatures": "blocked, forbidden",
        "name": "blocked"
      },
      "setIdx": 9,
      "setId": 0,
      "iconIdx": 1213
    },
    {
      "icon": {
        "paths": [
          "M384 256v704h-128v-704h-160l224-224 224 224zM640 768v-704h128v704h160l-224 224-224-224z"
        ],
        "attrs": [],
        "isMulticolor": false,
        "tags": [
          "sort",
          "arrows",
          "arrange"
        ],
        "defaultCode": 58405,
        "grid": 16
      },
      "attrs": [],
      "properties": {
        "id": 1173,
        "order": 4375,
        "prevSize": 15,
        "code": 61000,
        "ligatures": "sort, arrows10",
        "name": "sort"
      },
      "setIdx": 9,
      "setId": 0,
      "iconIdx": 1438
    }
  ],
  "height": 1024,
  "preferences": {
    "showGlyphs": true,
    "showQuickUse": true,
    "showQuickUse2": true,
    "showSVGs": true,
    "fontPref": {
      "prefix": "prs-icon-",
      "metadata": {
        "fontFamily": "PRS-Icon-Font",
        "majorVersion": 1,
        "minorVersion": 0,
        "designer": "IcoMoon"
      },
      "metrics": {
        "emSize": 1024,
        "baseline": 6.25,
        "whitespace": 50
      },
      "ie7": false,
      "includeMetadata": false,
      "embed": true,
      "showSelector": true,
      "showMetrics": true,
      "showVersion": true,
      "showMetadata": true,
      "cssVars": true,
      "autoHost": true,
      "resetPoint": 58880,
      "noie8": true,
      "selector": "class",
      "classSelector": ".icon",
      "cssVarsFormat": "scss",
      "postfix": ""
    },
    "imagePref": {
      "prefix": "prs-icon-",
      "png": false,
      "useClassSelector": true,
      "color": 4473924,
      "bgColor": 16777215,
      "classSelector": ".icon",
      "height": 16,
      "columns": 16,
      "margin": 16,
      "postfix": "",
      "minifyJs": false,
      "pdf": true,
      "name": "PrismSVG",
      "addBgColor": false,
      "sprite": true,
      "overrideSize": true,
      "xaml": true
    },
    "historySize": 100,
    "showCodes": true,
    "gridSize": 16,
    "quickUsageToken": {
      "MUI-UIONLY": false
    },
    "showLiga": false,
    "showGrid": false
  }
}