<?xml version="1.0" encoding="UTF-8"?>
<svg width="32px" height="32px" viewBox="0 0 32 32" version="1.1" xmlns="http://www.w3.org/2000/svg" xmlns:xlink="http://www.w3.org/1999/xlink">
    <!-- Generator: Sketch 52.2 (67145) - http://www.bohemiancoding.com/sketch -->
    <title>ove-logo-24x24</title>
    <desc>Created with Sketch.</desc>
    <defs>
        <polygon id="path-1" points="0.368317052 0 7.39459459 0 7.39459459 12.4635196 0.368317052 12.4635196"></polygon>
        <polygon id="path-3" points="0 0.00232096455 7.06207284 0.00232096455 7.06207284 12.4799888 0 12.4799888"></polygon>
    </defs>
    <g id="ove-logo-24x24" stroke="none" stroke-width="1" fill="none" fill-rule="evenodd">
        <g id="Group-2">
            <rect id="Rectangle-4" x="0" y="0" width="32" height="32"></rect>
            <g id="ove-logo" transform="translate(4.000000, 10.000000)">
                <path d="M8.14234378,0.288405 C8.98883027,0.288405 9.76720865,0.287625 10.545587,0.288795 C10.6646789,0.289185 10.7837708,0.298545 10.9519005,0.305955 C11.0110573,3.255135 10.7218897,6.222645 11.6742357,9.149595 C12.6203546,6.230835 12.2891546,3.274635 12.3662141,0.320385 L15.1539762,0.320385 C15.1602032,0.447525 15.1722681,0.588705 15.1726573,0.729495 C15.1738249,2.394405 15.1812195,4.059705 15.1718789,5.724615 C15.1586465,7.974915 14.5234897,10.064145 13.4800735,12.039495 C13.4216951,12.149865 13.2434465,12.260235 13.1189059,12.262965 C12.2175438,12.281685 11.3154032,12.283245 10.4140411,12.262185 C10.2762681,12.259065 10.084787,12.144795 10.0139546,12.025065 C8.81252757,10.000965 8.09875459,7.838415 8.13767351,5.455125 C8.16297081,3.911115 8.14234378,2.366715 8.14234378,0.822315 L8.14234378,0.288405 Z" id="Fill-1" fill="#0B9444"></path>
                <path d="M4.20483892,2.935218 C4.20483892,4.021368 4.20483892,5.107128 4.20483892,6.193278 C4.20444973,7.027488 4.20717405,7.862088 4.2056173,8.696688 C4.20717405,7.862088 4.20483892,7.027488 4.20483892,6.193278 C4.20483892,5.107128 4.20483892,4.021368 4.20483892,2.935218" id="Fill-3" fill="#0B9444"></path>
                <g id="Group-7" transform="translate(15.956757, 0.000000)">
                    <mask id="mask-2" fill="white">
                        <use xlink:href="#path-1"></use>
                    </mask>
                    <g id="Clip-6"></g>
                    <path d="M3.14826811,2.72571 C3.1700627,2.31153 3.44171676,2.08182 3.82117622,2.09469 C4.20569514,2.10756 4.45088432,2.34819 4.46100324,2.76354 C4.47423568,3.32514 4.46411676,3.88674 4.46411676,4.49748 C4.06013838,4.49748 3.69507892,4.50996 3.33235459,4.48695 C3.26268973,4.48227 3.14787892,4.33953 3.14515459,4.25802 C3.12997622,3.74751 3.12141405,3.23544 3.14826811,2.72571 Z M4.46489514,7.49502 C4.46489514,8.14827 4.46645189,8.76915 4.46450595,9.38964 C4.46256,9.97113 4.25161946,10.23477 3.79432216,10.23438 C3.34364108,10.23438 3.13931676,9.97308 3.13581405,9.37716 C3.13192216,8.66112 3.15527351,7.94391 3.12647351,7.22904 C3.11090595,6.84138 3.22338162,6.72009 3.60906811,6.72789 C4.82178162,6.75207 6.03527351,6.73686 7.39471135,6.73686 C7.30986811,5.22522 7.30870054,3.76467 7.12150054,2.32986 C6.97360865,1.19652 6.28435459,0.34632 5.12807351,0.13377 C4.40028973,-5.63449705e-16 3.62346811,-0.04797 2.89529514,0.05733 C1.39497081,0.27456 0.540700541,1.27452 0.427057297,2.82321 C0.364787027,3.67029 0.365954595,4.52361 0.369846486,5.3742 C0.376851892,6.83241 0.36828973,8.29296 0.441457297,9.74883 C0.509565405,11.10603 1.28016,12.04632 2.57460324,12.31893 C3.28565189,12.4683 4.04379243,12.49443 4.76924108,12.43164 C5.86870054,12.33687 6.65641946,11.72808 7.02731676,10.62243 C7.36863568,9.60414 7.32777081,8.55621 7.30052757,7.49502 L4.46489514,7.49502 Z" id="Fill-5" fill="#0B9444" mask="url(#mask-2)"></path>
                </g>
                <g id="Group-10">
                    <mask id="mask-4" fill="white">
                        <use xlink:href="#path-3"></use>
                    </mask>
                    <g id="Clip-9"></g>
                    <path d="M4.2056173,8.696844 C4.20522811,8.974914 4.20406054,9.252984 4.20211459,9.531444 C4.19900108,10.029084 3.95303351,10.284924 3.51052541,10.287264 C3.07307676,10.289214 2.83411459,10.034154 2.82866595,9.524814 C2.81971459,8.733894 2.82594162,7.942584 2.82594162,7.151664 C2.82594162,5.744154 2.82127135,4.336254 2.82827676,2.928354 C2.83177946,2.340234 3.17776865,2.052804 3.69577946,2.176434 C4.10209297,2.273544 4.20483892,2.568774 4.20483892,2.935374 C4.20483892,4.021134 4.20483892,5.106894 4.20483892,6.193044 C4.20483892,7.027644 4.20717405,7.862244 4.2056173,8.696844 M4.39087135,0.081354 C3.97366054,0.001404 3.53193081,-0.014586 3.10771459,0.018564 C1.07264432,0.177294 0.000817297297,1.349634 3.89189189e-05,3.380364 C-0.00035027027,4.292574 3.89189189e-05,5.204784 3.89189189e-05,6.117384 L0.00937945946,6.117384 C0.00937945946,7.163754 -0.0131935135,8.210514 0.0152172973,9.256494 C0.0518010811,10.606284 0.554633514,11.685414 1.90745514,12.201384 C2.70684973,12.506754 3.53932541,12.542634 4.37063351,12.398334 C5.98148757,12.118314 6.96419027,11.101974 7.01517405,9.472554 C7.08211459,7.329114 7.07666595,5.180214 7.00349838,3.036774 C6.94706595,1.373814 6.02352,0.394914 4.39087135,0.081354" id="Fill-8" fill="#0B9444" mask="url(#mask-4)"></path>
                </g>
            </g>
        </g>
    </g>
</svg>