<?xml version="1.0" standalone="no"?>
<!DOCTYPE svg PUBLIC "-//W3C//DTD SVG 20010904//EN"
 "http://www.w3.org/TR/2001/REC-SVG-20010904/DTD/svg10.dtd">
<svg version="1.0" xmlns="http://www.w3.org/2000/svg"
 width="423.000000pt" height="442.000000pt" viewBox="0 0 423.000000 442.000000"
 preserveAspectRatio="xMidYMid meet">
<metadata>
Created by potrace 1.15, written by Peter Selinger 2001-2017
</metadata>
<g transform="translate(0.000000,442.000000) scale(0.100000,-0.100000)"
fill="#000000" stroke="none">
<path d="M0 2210 l0 -2210 332 0 331 0 76 42 c42 22 96 52 121 66 25 13 69 38
98 54 l54 30 -67 -96 -67 -96 1676 0 1676 0 0 2210 0 2210 -2115 0 -2115 0 0
-2210z m2363 1633 c34 -3 45 -8 38 -16 -7 -9 25 -13 122 -14 139 -2 217 -17
217 -39 0 -9 12 -14 35 -14 34 0 46 -12 25 -25 -5 -3 -10 -1 -10 4 0 6 -9 11
-20 11 -11 0 -20 -5 -20 -10 0 -14 44 -30 79 -30 33 0 101 -26 101 -39 0 -5
25 -11 55 -13 31 -3 63 -12 73 -21 10 -9 26 -17 34 -17 9 0 21 -7 28 -15 7 -8
23 -15 36 -15 14 0 30 -10 40 -25 9 -13 24 -27 35 -30 22 -7 26 -25 5 -25 -7
0 -26 16 -40 35 -27 35 -56 47 -56 23 0 -15 75 -88 89 -88 5 0 11 6 14 13 6
16 38 -2 52 -29 6 -10 23 -32 38 -48 15 -16 33 -41 40 -55 7 -14 21 -27 32
-29 11 -2 34 -22 52 -45 34 -44 37 -67 4 -26 -11 13 -22 22 -25 19 -9 -10 33
-90 47 -90 8 0 17 -13 21 -30 3 -16 12 -30 20 -30 7 0 16 -9 19 -20 3 -11 1
-20 -4 -20 -5 0 -9 7 -9 15 0 8 -5 15 -11 15 -19 0 -4 -45 19 -55 16 -7 22
-19 23 -42 2 -36 2 -36 12 -76 6 -23 10 -26 26 -17 17 8 20 5 25 -28 3 -20 8
-55 12 -77 5 -33 4 -38 -7 -27 -19 17 -29 15 -29 -7 0 -10 9 -21 20 -24 18 -5
20 -14 21 -94 2 -115 0 -133 -13 -166 -9 -22 -7 -31 6 -46 22 -25 21 -68 -4
-81 -11 -6 -20 -20 -20 -30 0 -11 -5 -20 -11 -20 -8 0 -10 -17 -6 -56 6 -57
-4 -104 -23 -104 -6 0 -6 9 0 25 10 27 -2 75 -19 75 -15 0 -41 60 -41 93 l0
30 23 -21 c13 -12 29 -22 35 -22 15 0 16 36 2 45 -6 4 -8 11 -5 16 4 5 -4 10
-17 10 -18 1 -19 2 -5 6 15 4 17 11 11 36 -3 18 -12 39 -20 48 -8 8 -14 23
-14 32 0 9 -4 17 -10 17 -15 0 -12 49 3 65 20 20 8 99 -16 103 -10 2 -24 -4
-31 -13 -11 -15 -15 -15 -34 -4 -18 11 -23 10 -41 -12 -15 -17 -19 -32 -15
-53 4 -19 2 -27 -6 -24 -6 2 -11 7 -11 11 1 4 1 24 1 46 0 31 4 40 21 44 17 5
19 11 14 41 -12 62 -11 71 13 81 32 14 30 68 -4 102 -14 14 -23 31 -20 39 3 9
-1 14 -13 14 -10 0 -24 7 -31 16 -17 19 -74 15 -78 -6 -1 -9 13 -25 35 -38 21
-12 32 -22 26 -22 -7 0 -13 -7 -13 -15 0 -8 -9 -19 -20 -25 -23 -12 -27 -6
-32 45 -2 25 -8 31 -31 33 -16 2 -37 -2 -46 -10 -10 -7 -2 1 17 19 25 23 33
38 29 53 -3 13 0 20 9 20 23 0 16 27 -8 34 -41 10 -58 7 -58 -12 0 -11 -11
-24 -25 -30 -17 -8 -23 -16 -18 -28 5 -14 3 -15 -18 -4 -32 17 -48 40 -49 67
0 18 -9 25 -45 34 -33 8 -45 16 -45 30 0 10 -7 22 -16 27 -9 5 -18 26 -21 48
-5 47 -20 58 -51 38 -23 -15 -23 -15 -12 7 10 18 9 24 -4 31 -9 5 -16 14 -16
21 0 8 3 8 9 -1 14 -23 46 -10 49 21 3 23 0 27 -23 27 -14 0 -38 -9 -53 -20
-15 -11 -42 -24 -60 -30 -29 -8 -32 -7 -22 5 10 12 10 19 -1 33 -13 16 -13 16
7 0 11 -10 26 -18 32 -18 17 0 15 25 -3 40 -8 7 -15 23 -15 36 0 21 -4 23 -29
18 -21 -4 -37 0 -59 16 -26 19 -44 23 -121 24 l-90 1 -7 28 c-4 20 -10 27 -21
23 -9 -4 -21 -2 -27 2 -6 5 -19 12 -29 15 -14 5 -16 2 -11 -18 7 -30 1 -31
-36 -5 -19 13 -27 26 -23 39 3 11 -2 21 -12 25 -21 8 -35 0 -35 -20 0 -16 -16
-19 -25 -3 -4 5 -17 9 -30 7 -13 -2 -32 6 -44 16 -11 10 -27 16 -35 13 -10 -4
-19 4 -28 24 -10 23 -18 29 -35 26 -17 -3 -23 1 -23 14 0 11 -4 19 -9 19 -5 0
-16 3 -24 6 -10 3 -18 -2 -22 -15 -3 -12 -13 -21 -21 -21 -8 0 -14 -7 -14 -16
0 -14 -2 -14 -16 1 -10 9 -17 30 -16 46 1 24 -3 29 -16 25 -12 -4 -21 3 -29
21 -7 14 -10 29 -8 34 3 4 -7 6 -22 5 -23 -3 -28 -8 -28 -29 1 -14 -3 -23 -7
-21 -4 3 -8 13 -8 23 0 13 -12 22 -42 29 -46 12 -58 9 -58 -16 -1 -17 -70 -57
-70 -41 0 5 4 9 9 9 17 0 24 42 10 51 -21 13 -26 11 -32 -10 -3 -13 -17 -22
-41 -26 -20 -4 -36 -13 -36 -20 0 -18 -51 -30 -61 -14 -5 9 -20 5 -58 -15 -28
-14 -51 -22 -51 -18 0 5 15 16 33 24 98 47 125 61 159 81 33 20 48 22 144 20
63 -1 114 2 121 8 7 6 18 7 25 3 10 -6 10 -4 -1 9 -7 9 -17 15 -21 12 -5 -3
-11 -1 -14 3 -6 10 111 8 135 -2 8 -4 29 -2 44 4 19 7 61 9 116 4 58 -4 93 -3
105 5 11 6 35 9 54 6 19 -4 57 -9 83 -12z m-1199 -502 c3 -5 -1 -11 -9 -15 -8
-3 -15 -12 -15 -21 0 -13 20 -15 128 -15 70 0 163 -4 207 -9 44 -5 114 -12
156 -16 76 -6 77 -7 81 -36 l5 -29 -69 0 c-37 0 -68 -3 -68 -7 1 -22 32 -43
76 -52 l49 -10 -47 4 c-33 3 -50 0 -59 -11 -8 -10 -21 -13 -41 -9 -29 7 -37
-5 -15 -22 6 -6 46 -13 87 -17 115 -9 120 -12 120 -58 l0 -40 -42 5 c-153 21
-498 13 -506 -10 -2 -9 11 -13 50 -13 29 0 91 -4 138 -9 47 -5 135 -13 197
-16 88 -6 113 -10 118 -23 3 -8 1 -18 -5 -22 -6 -4 -74 -13 -151 -20 -174 -17
-180 -33 -13 -40 102 -4 113 -6 75 -14 -30 -5 -45 -14 -48 -27 -4 -13 -14 -19
-34 -19 -15 0 -40 -5 -55 -10 -51 -20 -173 -50 -201 -50 -47 0 -55 -11 -44
-59 9 -42 8 -45 -26 -79 -35 -34 -36 -37 -21 -62 14 -24 13 -27 -9 -43 -13
-10 -23 -22 -23 -27 0 -15 21 -12 44 7 15 13 13 9 -4 -11 -16 -19 -21 -30 -13
-33 7 -2 9 -11 6 -19 -7 -19 6 -18 31 4 18 15 17 14 -2 -12 -17 -22 -19 -31
-10 -37 8 -5 4 -11 -15 -18 -35 -14 -40 -14 -104 1 -44 11 -53 16 -58 39 -4
15 -29 60 -57 101 -28 40 -62 94 -75 121 -23 48 -43 61 -43 30 0 -14 -2 -15
-9 -4 -7 11 -19 9 -65 -13 -31 -15 -56 -32 -56 -38 0 -6 -2 -9 -4 -7 -3 2 2
36 9 74 56 286 103 449 148 509 13 17 31 51 40 76 10 25 28 63 40 85 21 37 26
40 60 37 21 -2 45 2 55 7 21 13 89 14 96 2z m1135 -52 c35 -10 73 -19 85 -19
21 0 22 -4 18 -67 -1 -38 -7 -90 -13 -116 -13 -69 -12 -145 4 -149 32 -8 227
-124 227 -135 0 -7 6 -13 13 -13 6 0 23 -10 37 -21 24 -20 19 -20 -22 -4 -13
5 -18 2 -18 -8 0 -18 26 -47 42 -47 6 0 9 -3 6 -6 -4 -3 -16 -1 -27 6 -17 8
-21 8 -21 -3 0 -17 94 -117 110 -117 5 0 10 -7 10 -15 0 -27 -18 -16 -74 47
-52 59 -87 74 -57 25 14 -22 14 -22 -7 -4 -25 23 -49 14 -30 -11 11 -15 11
-15 -2 -5 -13 10 -32 2 -105 -42 -50 -30 -107 -63 -128 -75 -21 -11 -40 -27
-43 -35 -3 -7 14 -47 38 -88 l42 -75 86 -10 85 -10 -91 5 c-88 5 -91 4 -97
-17 -6 -22 -9 -22 -64 -14 -32 4 -91 8 -130 8 -49 0 -73 4 -73 12 0 8 -30 15
-81 19 -52 5 -76 10 -68 16 8 5 30 8 50 7 43 -1 59 7 59 32 0 10 6 25 13 32 7
7 16 21 20 32 5 14 4 17 -8 12 -9 -3 -15 0 -15 10 0 8 -4 12 -10 9 -5 -3 -10
0 -10 8 0 12 -72 79 -109 102 -21 12 -85 24 -186 35 -49 5 -124 16 -165 24
-70 13 -77 13 -107 -4 -32 -19 -33 -19 -33 -1 0 10 8 22 18 26 26 10 233 25
357 25 l110 0 115 -95 c63 -52 118 -95 123 -95 16 0 5 23 -33 64 l-41 44 31
18 c17 10 28 24 26 31 -6 16 -1 16 25 3 22 -12 24 -7 7 23 -10 20 -10 21 5 8
24 -19 23 5 0 33 -18 21 -18 21 3 4 21 -18 44 -24 44 -11 0 4 -30 38 -67 75
l-66 67 22 188 c12 103 25 212 28 241 l6 54 36 -7 c20 -3 65 -15 100 -26z
m-1531 -829 c18 0 32 5 32 12 0 9 3 9 12 0 7 -7 32 -12 56 -12 38 0 43 -2 37
-17 -3 -10 -12 -34 -18 -54 l-11 -37 -80 6 c-58 4 -77 2 -72 -6 5 -9 -8 -12
-46 -11 -52 1 -53 1 -21 12 42 16 41 14 44 80 2 52 4 56 19 42 9 -8 31 -15 48
-15z m1101 5 c24 -8 66 -32 93 -52 l49 -38 -45 -3 c-29 -2 -54 3 -70 13 -33
22 -121 45 -173 45 -32 0 -45 5 -53 20 -6 11 -9 24 -6 28 7 12 157 2 205 -13z
m-649 -341 c11 -66 11 -85 -3 -152 -10 -43 -17 -87 -17 -99 0 -22 8 -26 101
-47 15 -3 29 -14 32 -25 3 -14 1 -18 -9 -14 -8 3 -14 -1 -14 -8 0 -10 -3 -10
-12 -1 -15 15 -42 16 -32 1 4 -8 0 -8 -15 0 -42 23 -22 -14 34 -61 39 -33 61
-45 76 -41 11 3 18 11 15 19 -10 26 25 2 40 -28 15 -28 14 -33 -2 -64 -10 -18
-23 -35 -29 -37 -5 -2 -57 2 -115 9 -62 8 -138 11 -187 8 -72 -6 -83 -9 -83
-25 0 -17 -2 -17 -35 -3 -19 7 -50 14 -70 14 -30 0 -35 -3 -35 -23 0 -17 17
-32 71 -65 66 -40 99 -47 99 -23 0 6 19 3 43 -6 38 -14 43 -19 39 -42 -3 -20
4 -33 27 -54 17 -15 31 -33 31 -41 0 -8 38 -25 101 -45 56 -18 99 -34 97 -36
-1 -1 -34 3 -73 11 -180 36 -195 37 -242 6 -18 -11 -29 -12 -57 -2 -29 9 -40
8 -63 -5 -27 -16 -27 -16 -5 0 21 17 31 55 14 55 -14 0 -80 -74 -91 -100 -7
-17 -10 -19 -10 -8 -1 10 -10 34 -21 55 -10 21 -33 86 -50 144 -33 116 -39
212 -19 324 9 56 13 62 32 58 12 -2 41 0 64 5 39 9 42 8 33 -8 -15 -28 -12
-60 5 -60 8 0 30 24 49 53 43 69 186 361 186 382 0 35 20 55 54 55 l33 0 13
-76z m2188 -41 c28 -26 45 -55 56 -92 17 -58 21 -157 8 -179 -5 -7 -6 15 -4
47 4 56 2 63 -32 110 -56 76 -129 89 -220 37 -47 -26 -62 -53 -25 -42 69 19
76 19 82 -6 3 -12 12 -31 20 -42 12 -16 17 -17 37 -6 32 17 37 5 45 -108 5
-65 4 -110 -5 -146 l-13 -51 -106 -54 c-60 -30 -123 -55 -146 -57 -22 -2 -59
-6 -81 -10 -29 -4 -51 -1 -72 10 -17 9 -35 16 -39 16 -5 0 -14 -44 -20 -98 -7
-54 -15 -106 -19 -115 -13 -36 25 -16 54 28 l29 45 6 -41 c6 -44 27 -73 69
-95 24 -13 32 -13 57 0 29 15 52 69 24 59 -8 -3 -13 2 -13 16 0 23 25 29 34 9
3 -7 3 9 1 35 -5 46 -4 49 28 62 17 7 61 43 97 79 35 36 69 66 73 66 5 0 7
-17 4 -37 -4 -21 -7 -231 -8 -468 l-1 -430 25 -15 c20 -13 23 -18 12 -25 -7
-6 -34 -52 -60 -104 -47 -92 -48 -94 -31 -122 l17 -29 -35 21 c-42 25 -49 9
-13 -29 l22 -25 -42 26 c-52 33 -67 18 -27 -25 l29 -30 -57 26 c-32 13 -70 31
-85 38 l-28 13 4 130 c2 72 6 185 10 253 6 122 6 123 -15 119 -12 -2 -28 2
-37 8 -14 10 -13 16 15 49 16 20 27 40 24 44 -7 7 -11 5 -83 -48 l-48 -35 38
53 c59 83 49 97 -21 29 l-44 -42 28 45 c15 25 34 52 41 61 15 18 17 55 3 64
-5 3 -21 28 -36 55 -29 54 -60 76 -52 38 3 -13 15 -47 27 -77 l22 -55 -45 42
c-25 23 -50 42 -55 42 -10 0 -3 -30 9 -40 3 -3 14 -18 25 -35 l19 -30 -34 29
c-38 31 -55 19 -23 -17 11 -12 24 -34 31 -49 11 -26 6 -33 -93 -151 -57 -68
-111 -124 -119 -124 -8 0 -12 6 -9 14 3 8 -2 13 -12 13 -13 0 -15 6 -10 30 8
35 1 37 -42 10 l-33 -19 -8 32 c-9 33 1 45 81 102 16 11 14 26 -33 241 -28
126 -58 255 -66 288 -15 58 -15 59 10 85 14 15 26 31 26 35 0 5 -21 6 -47 3
l-48 -5 37 21 c37 22 54 55 22 43 -9 -3 -28 -9 -42 -12 -26 -5 -26 -5 8 24 43
37 34 50 -20 28 -22 -9 -42 -16 -44 -16 -3 0 -10 26 -16 58 -6 31 -15 69 -20
83 -7 23 -4 28 24 41 17 9 47 28 65 44 l34 28 -6 91 c-4 50 -9 100 -13 110 -6
15 -4 17 11 11 10 -3 21 -3 24 2 3 6 115 13 249 16 l243 7 -3 -86 c-2 -63 0
-85 9 -85 7 0 52 38 100 85 92 90 89 88 210 93 36 2 48 -3 81 -35z m-1825 -6
c27 -21 27 -23 8 -24 -29 -2 -70 -35 -71 -55 0 -14 8 -18 39 -18 21 0 52 5 70
11 26 9 36 8 58 -6 26 -17 26 -18 7 -31 -43 -30 -50 -39 -32 -42 9 -2 27 2 40
8 21 10 22 10 4 -4 -10 -8 -15 -19 -11 -25 8 -14 -157 -15 -207 -1 -44 13 -58
34 -58 89 0 26 -5 41 -12 42 -7 0 -1 5 13 10 14 5 31 20 37 34 8 16 21 25 44
28 18 2 35 4 38 5 3 1 18 -8 33 -21z m-790 -34 c-7 -2 -13 -17 -13 -31 l1 -27
17 21 c18 21 18 21 75 -45 39 -45 52 -68 44 -73 -9 -6 -9 -10 2 -17 26 -17
-30 -39 -130 -51 -53 -7 -104 -10 -115 -7 -10 2 2 5 28 6 26 0 50 6 53 12 4 5
9 56 11 112 2 56 4 103 4 105 0 1 8 2 18 1 10 0 12 -3 5 -6z m1131 -204 c-37
-41 -14 -95 24 -57 6 6 15 9 18 5 4 -3 -5 -12 -20 -18 -33 -15 -36 -43 -3 -36
12 2 31 8 42 12 11 5 -27 -24 -85 -63 l-105 -71 -33 32 -33 32 -37 -22 -38
-21 -62 79 -62 79 120 0 c122 0 177 11 256 53 39 20 40 20 18 -4z m-438 -359
c17 0 30 -10 44 -32 11 -18 15 -34 10 -36 -6 -2 -3 -17 6 -35 l17 -32 -27 24
c-27 25 -34 16 -15 -22 7 -16 3 -13 -15 8 -34 40 -41 28 -16 -29 11 -26 20
-49 20 -51 0 -2 -40 19 -90 48 -52 30 -90 58 -90 67 0 8 5 32 10 52 10 34 14
37 53 41 23 2 48 2 55 0 8 -2 25 -3 38 -3z m-20 -411 c19 -11 34 -24 34 -29 0
-4 -42 -26 -92 -48 -171 -73 -176 -75 -297 -70 -112 3 -141 -6 -83 -28 21 -8
30 -21 40 -59 7 -26 11 -48 10 -49 -63 -26 -85 -55 -41 -57 17 -1 21 -3 11 -6
-10 -2 -18 -11 -18 -19 0 -10 8 -13 28 -9 26 5 26 5 3 -5 -15 -7 -22 -16 -18
-28 16 -54 61 -181 72 -205 8 -15 10 -27 5 -27 -18 0 -39 31 -56 82 -9 29 -37
98 -62 153 -42 94 -45 105 -43 178 2 62 -1 78 -13 83 -19 7 -21 51 -6 105 13
46 39 54 118 39 46 -9 65 -9 97 3 26 9 83 15 159 16 104 1 123 -2 152 -20z
m2161 -210 c30 -29 38 -71 19 -108 -31 -60 -99 -70 -147 -22 -46 47 -38 114
19 146 33 19 78 12 109 -16z"/>
<path d="M3126 1888 c-11 -15 -16 -45 -16 -85 l0 -63 -29 32 c-16 18 -32 31
-35 28 -3 -3 4 -36 16 -73 l20 -68 -31 -50 c-17 -28 -31 -63 -31 -79 0 -27 1
-28 32 -20 17 5 48 21 68 35 24 16 50 25 76 25 35 0 47 7 92 52 49 49 66 88
43 102 -4 3 -11 19 -14 35 -5 22 -17 36 -46 50 -21 11 -53 38 -71 61 -36 46
-52 49 -74 18z"/>
<path d="M3511 853 c-11 -10 -24 -32 -27 -50 -5 -27 -1 -37 24 -63 37 -37 74
-39 107 -5 71 70 -27 181 -104 118z"/>
</g>
</svg>
