<!-- Generated by IcoMoon.io -->
<svg version="1.1" xmlns="http://www.w3.org/2000/svg" width="16" height="16" viewBox="0 0 16 16">
<title>barcode</title>
<path fill="#444" d="M0 3h2v10h-2zM3 3h1v10h-1zM5 3h1v10h-1zM8 3h1v10h-1zM12 3h1v10h-1zM15 3h1v10h-1zM10 3h0.5v10h-0.5zM7 3h0.5v10h-0.5zM13.5 3h0.5v10h-0.5z"></path>
</svg>
