<!-- Generated by IcoMoon.io -->
<svg version="1.1" xmlns="http://www.w3.org/2000/svg" width="16" height="16" viewBox="0 0 16 16">
<title>plus3</title>
<path fill="#444" d="M15 7h-6v-6h-2v6h-6v2h6v6h2v-6h6z"></path>
</svg>
