<!-- Generated by IcoMoon.io -->
<svg version="1.1" xmlns="http://www.w3.org/2000/svg" width="16" height="16" viewBox="0 0 16 16">
<title>search</title>
<path fill="#444" d="M16 13.5l-4.695-4.695c0.444-0.837 0.695-1.792 0.695-2.805 0-3.314-2.686-6-6-6s-6 2.686-6 6 2.686 6 6 6c1.013 0 1.968-0.252 2.805-0.695l4.695 4.695 2.5-2.5zM2 6c0-2.209 1.791-4 4-4s4 1.791 4 4-1.791 4-4 4-4-1.791-4-4z"></path>
</svg>
